cv by sample — cv_by_sample_estimation • protGear
…
"dataC.csv", package="protGear"))
#> Rows: 567 Columns: 11
#> ── Column specification ────────────────────────────────────────────────────────
#> Delimiter: ","
#> chr (3): sampleID, antigen, iden
#> dbl (8): sample_array_ID, FMedian, BGMedian, FMedianBG_correct, Block, Colum...
#> 
#> ℹ Use `spec()` to retrieve the full column specification for this data.
#> ℹ Specify the column types or set `show_col_types = FALSE` to quiet this message.
## this file has 3 lab replicates and the default names
dataCV <- cv_estimation(dataC  ,lab_replicates=3)
#> Warning: The replicates are as expected per sample per antigen
cv_by_sample_estimation(dataCV, cv_variable = "cvCat_all",
 lab_replicates = 3)
#> # A tibble: 21 × 7
#>    sampleID `CV <= 20_n` `CV <= 20_perc` `CV > 20_n` `CV > 20_perc` Others_n
#>    <chr>           <dbl>           <dbl>       <dbl>          <dbl>    <dbl>
#>  1 0.0085              5            83.3           1           16.7        0
#>  2 0.0255              3            50             2           33.3        1
#>  3 0.076               3            50             2           33.3        1
#>  4 0.23                4            66.7           2           33.3        0
#>  5 0.73                4            66.7           1           16.7        1
#>  6 177.78              6           100             0            0          0
#>  7 19.75               5            83.3           1           16.7        0
#>  8 2.19                3            50             3           50          0
#>  9 533                 6           100             0            0          0
#> 10 59.26               5            83.3           1           16.7        0
#> # … with 11 more rows, and 1 more variable: Others_perc <dbl>
…
