cv_estimation — cv_estimation • protGear
…
dataC <- readr::read_csv(system.file("extdata", "dataC.csv", package="protGear"))

#> Rows: 567 Columns: 11
#> -- Column specification --------------------------------------------------------
#> Delimiter: ","
#> chr (3): sampleID, antigen, iden
#> dbl (8): sample_array_ID, FMedian, BGMedian, FMedianBG_correct, Block, Colum...
#> 
#> i Use `spec()` to retrieve the full column specification for this data.
#> i Specify the column types or set `show_col_types = FALSE` to quiet this message.
## this file has 3 lab replicates and the default names
cv_estimation(dataC  ,lab_replicates=3)

#> Warning: The replicates are as expected per sample per antigen
#> # A tibble: 126 x 21
#> # Groups:   antigen [6]
#>    antigen sampleID sample_array_ID  meanX meanX2_X3 meanX1_X3 meanX1_X2   sdX
#>    <chr>   <chr>              <dbl>  <dbl>     <dbl>     <dbl>     <dbl> <dbl>
#>  1 AMA1    0.0085                11   643.      594.      692       642.  98.5
#>  2 AMA1    0.0255                 8   699       700.      672       724.  52.6
#>  3 AMA1    0.076                  5   633.      588       668.      642.  81.3
#>  4 AMA1    0.23                   2  1725.     1757      1720      1697   60.5
#>  5 AMA1    0.73                  19  2504.     2494.     2568.     2450  119. 
#>  6 AMA1    177.78                 4 58262     58208     58640.    57938. 709. 
#>  7 AMA1    19.75                 10 64143.    64204.    64280.    63944  353. 
#>  8 AMA1    2.19                  16  9243      9294      9031      9404  383. 
#>  9 AMA1    533                    1 53180.    52860.    53298     53380. 559. 
#> 10 AMA1    59.26                  7 61601     61870.    61848.    61085  894. 
#> # ... with 116 more rows, and 13 more variables: sdX2_X3 <dbl>, sdX1_X3 <dbl>,
#> #   sdX1_X2 <dbl>, CVX <dbl>, CVX2_X3 <dbl>, CVX1_X3 <dbl>, CVX1_X2 <dbl>,
#> #   cvCat_all <chr>, cvSelected_all <dbl>, iden <chr>, 1 <dbl>, 2 <dbl>,
#> #   3 <dbl>
…
