Merge sample ID with the array data — merge_sampleID • protGear
…
#> Warning: KK2-06.csv Not found in the sampleID filesdata/array_sampleID/
#> # A tibble: 8,064 x 11
#> # Groups:   sampleID, antigen [2,457]
#>    sampleID sample_array_ID antigen    FMedian BGMedian FMedianBG_correct Block
#>    <chr>              <int> <chr>        <int>    <int>             <dbl> <int>
#>  1 SID_gen1               1 Landmark     65535     2443             64413     1
#>  2 SID_gen1               1 MSP3.6        5488     1126              4366     1
#>  3 SID_gen1               1 ETRAMP10.2    6350     1026              5228     1
#>  4 SID_gen1               1 GAMA         15768     1059             14646     1
#>  5 SID_gen1               1 MSRP4        65535     1413             64413     1
#>  6 SID_gen1               1 MSP4         65535     1405             64413     1
#>  7 SID_gen1               1 RAMA         43966     1085             42844     1
#>  8 SID_gen1               1 ASP          65535     1092             64413     1
#>  9 SID_gen1               1 Landmark     65535     4198             64413     1
#> 10 SID_gen1               1 MSP3.6        6596     1343              5474     1
#> # ... with 8,054 more rows, and 4 more variables: Column <int>, Row <int>,
#> #   replicate <int>, iden <chr>
…
